Accelerators/Add_Reducer/Add_Reducer_test_bench.vcd
$date
	Sun May 18 20:43:20 2014
$end
$version
	Icarus Verilog
$end
$timescale
	1ps
$end
$scope module Add_Reducer_test_bench $end
$var wire 36 ! reduction [35:0] $end
$var reg 288 " addends [287:0] $end
$var reg 1 # clock $end
$var integer 32 $ cycle [31:0] $end
$var integer 32 % i [31:0] $end
$scope module DUT $end
$var wire 288 & addends [287:0] $end
$var wire 288 ' addends_delayed [287:0] $end
$var wire 288 ( addends_delayed_2 [287:0] $end
$var wire 1 ) clock $end
$var wire 144 * partial_reduction_1 [143:0] $end
$var wire 72 + partial_reduction_2 [71:0] $end
$var wire 36 , partial_reduction_3 [35:0] $end
$var wire 36 - reduction [35:0] $end
$scope module reduction_pipeline $end
$var wire 1 ) clock $end
$var wire 36 . in [35:0] $end
$var reg 36 / out [35:0] $end
$scope begin genblk2 $end
$var integer 32 0 i [31:0] $end
$upscope $end
$upscope $end
$scope module addends_pipeline[0] $end
$var wire 1 ) clock $end
$var wire 36 1 in [35:0] $end
$var reg 36 2 out [35:0] $end
$scope begin genblk1 $end
$upscope $end
$upscope $end
$scope module addends_pipeline[1] $end
$var wire 1 ) clock $end
$var wire 36 3 in [35:0] $end
$var reg 36 4 out [35:0] $end
$scope begin genblk1 $end
$upscope $end
$upscope $end
$scope module addends_pipeline[2] $end
$var wire 1 ) clock $end
$var wire 36 5 in [35:0] $end
$var reg 36 6 out [35:0] $end
$scope begin genblk1 $end
$upscope $end
$upscope $end
$scope module addends_pipeline[3] $end
$var wire 1 ) clock $end
$var wire 36 7 in [35:0] $end
$var reg 36 8 out [35:0] $end
$scope begin genblk1 $end
$upscope $end
$upscope $end
$scope module addends_pipeline[4] $end
$var wire 1 ) clock $end
$var wire 36 9 in [35:0] $end
$var reg 36 : out [35:0] $end
$scope begin genblk1 $end
$upscope $end
$upscope $end
$scope module addends_pipeline[5] $end
$var wire 1 ) clock $end
$var wire 36 ; in [35:0] $end
$var reg 36 < out [35:0] $end
$scope begin genblk1 $end
$upscope $end
$upscope $end
$scope module addends_pipeline[6] $end
$var wire 1 ) clock $end
$var wire 36 = in [35:0] $end
$var reg 36 > out [35:0] $end
$scope begin genblk1 $end
$upscope $end
$upscope $end
$scope module addends_pipeline[7] $end
$var wire 1 ) clock $end
$var wire 36 ? in [35:0] $end
$var reg 36 @ out [35:0] $end
$scope begin genblk1 $end
$upscope $end
$upscope $end
$scope module addends_pipeline_2[0] $end
$var wire 1 ) clock $end
$var wire 36 A in [35:0] $end
$var reg 36 B out [35:0] $end
$scope begin genblk2 $end
$var integer 32 C i [31:0] $end
$upscope $end
$upscope $end
$scope module addends_pipeline_2[1] $end
$var wire 1 ) clock $end
$var wire 36 D in [35:0] $end
$var reg 36 E out [35:0] $end
$scope begin genblk2 $end
$var integer 32 F i [31:0] $end
$upscope $end
$upscope $end
$scope module addends_pipeline_2[2] $end
$var wire 1 ) clock $end
$var wire 36 G in [35:0] $end
$var reg 36 H out [35:0] $end
$scope begin genblk2 $end
$var integer 32 I i [31:0] $end
$upscope $end
$upscope $end
$scope module addends_pipeline_2[3] $end
$var wire 1 ) clock $end
$var wire 36 J in [35:0] $end
$var reg 36 K out [35:0] $end
$scope begin genblk2 $end
$var integer 32 L i [31:0] $end
$upscope $end
$upscope $end
$scope module addends_pipeline_2[4] $end
$var wire 1 ) clock $end
$var wire 36 M in [35:0] $end
$var reg 36 N out [35:0] $end
$scope begin genblk2 $end
$var integer 32 O i [31:0] $end
$upscope $end
$upscope $end
$scope module addends_pipeline_2[5] $end
$var wire 1 ) clock $end
$var wire 36 P in [35:0] $end
$var reg 36 Q out [35:0] $end
$scope begin genblk2 $end
$var integer 32 R i [31:0] $end
$upscope $end
$upscope $end
$scope module addends_pipeline_2[6] $end
$var wire 1 ) clock $end
$var wire 36 S in [35:0] $end
$var reg 36 T out [35:0] $end
$scope begin genblk2 $end
$var integer 32 U i [31:0] $end
$upscope $end
$upscope $end
$scope module addends_pipeline_2[7] $end
$var wire 1 ) clock $end
$var wire 36 V in [35:0] $end
$var reg 36 W out [35:0] $end
$scope begin genblk2 $end
$var integer 32 X i [31:0] $end
$upscope $end
$upscope $end
$scope module AR_Layer_1[0] $end
$var wire 1 Y add_sub $end
$var wire 1 Z cin $end
$var wire 1 ) clock $end
$var wire 1 [ cout_lower $end
$var wire 1 \ cout_upper $end
$var wire 36 ] dataa [35:0] $end
$var wire 36 ^ datab [35:0] $end
$var wire 18 _ result_lower [17:0] $end
$var wire 18 ` result_upper [17:0] $end
$var reg 1 a add_sub_upper $end
$var reg 1 b cout $end
$var reg 1 c cout_lower_reg $end
$var reg 1 d cout_upper_reg $end
$var reg 18 e dataa_upper [17:0] $end
$var reg 18 f datab_upper [17:0] $end
$var reg 36 g result [35:0] $end
$var reg 18 h result_lower_reg [17:0] $end
$var reg 18 i result_lower_reg_1 [17:0] $end
$var reg 18 j result_upper_reg [17:0] $end
$scope function lower_half_word $end
$var reg 18 k lower_half_word [17:0] $end
$var reg 36 l word [35:0] $end
$upscope $end
$scope function upper_half_word $end
$var reg 18 m upper_half_word [17:0] $end
$var reg 36 n word [35:0] $end
$upscope $end
$scope module alu_lower $end
$var wire 1 Y add_sub $end
$var wire 1 Z cin $end
$var wire 18 o dataa [17:0] $end
$var wire 18 p datab [17:0] $end
$var reg 1 q cout $end
$var reg 18 r result [17:0] $end
$upscope $end
$scope module addsub_upper $end
$var wire 1 s add_sub $end
$var wire 1 t cin $end
$var wire 18 u dataa [17:0] $end
$var wire 18 v datab [17:0] $end
$var reg 1 w cout $end
$var reg 18 x result [17:0] $end
$upscope $end
$upscope $end
$scope module AR_Layer_1[1] $end
$var wire 1 Y add_sub $end
$var wire 1 Z cin $end
$var wire 1 ) clock $end
$var wire 1 y cout_lower $end
$var wire 1 z cout_upper $end
$var wire 36 { dataa [35:0] $end
$var wire 36 | datab [35:0] $end
$var wire 18 } result_lower [17:0] $end
$var wire 18 ~ result_upper [17:0] $end
$var reg 1 !" add_sub_upper $end
$var reg 1 "" cout $end
$var reg 1 #" cout_lower_reg $end
$var reg 1 $" cout_upper_reg $end
$var reg 18 %" dataa_upper [17:0] $end
$var reg 18 &" datab_upper [17:0] $end
$var reg 36 '" result [35:0] $end
$var reg 18 (" result_lower_reg [17:0] $end
$var reg 18 )" result_lower_reg_1 [17:0] $end
$var reg 18 *" result_upper_reg [17:0] $end
$scope function lower_half_word $end
$var reg 18 +" lower_half_word [17:0] $end
$var reg 36 ," word [35:0] $end
$upscope $end
$scope function upper_half_word $end
$var reg 18 -" upper_half_word [17:0] $end
$var reg 36 ." word [35:0] $end
$upscope $end
$scope module alu_lower $end
$var wire 1 Y add_sub $end
$var wire 1 Z cin $end
$var wire 18 /" dataa [17:0] $end
$var wire 18 0" datab [17:0] $end
$var reg 1 1" cout $end
$var reg 18 2" result [17:0] $end
$upscope $end
$scope module addsub_upper $end
$var wire 1 3" add_sub $end
$var wire 1 4" cin $end
$var wire 18 5" dataa [17:0] $end
$var wire 18 6" datab [17:0] $end
$var reg 1 7" cout $end
$var reg 18 8" result [17:0] $end
$upscope $end
$upscope $end
$scope module AR_Layer_1[2] $end
$var wire 1 Y add_sub $end
$var wire 1 Z cin $end
$var wire 1 ) clock $end
$var wire 1 9" cout_lower $end
$var wire 1 :" cout_upper $end
$var wire 36 ;" dataa [35:0] $end
$var wire 36 <" datab [35:0] $end
$var wire 18 =" result_lower [17:0] $end
$var wire 18 >" result_upper [17:0] $end
$var reg 1 ?" add_sub_upper $end
$var reg 1 @" cout $end
$var reg 1 A" cout_lower_reg $end
$var reg 1 B" cout_upper_reg $end
$var reg 18 C" dataa_upper [17:0] $end
$var reg 18 D" datab_upper [17:0] $end
$var reg 36 E" result [35:0] $end
$var reg 18 F" result_lower_reg [17:0] $end
$var reg 18 G" result_lower_reg_1 [17:0] $end
$var reg 18 H" result_upper_reg [17:0] $end
$scope function lower_half_word $end
$var reg 18 I" lower_half_word [17:0] $end
$var reg 36 J" word [35:0] $end
$upscope $end
$scope function upper_half_word $end
$var reg 18 K" upper_half_word [17:0] $end
$var reg 36 L" word [35:0] $end
$upscope $end
$scope module alu_lower $end
$var wire 1 Y add_sub $end
$var wire 1 Z cin $end
$var wire 18 M" dataa [17:0] $end
$var wire 18 N" datab [17:0] $end
$var reg 1 O" cout $end
$var reg 18 P" result [17:0] $end
$upscope $end
$scope module addsub_upper $end
$var wire 1 Q" add_sub $end
$var wire 1 R" cin $end
$var wire 18 S" dataa [17:0] $end
$var wire 18 T" datab [17:0] $end
$var reg 1 U" cout $end
$var reg 18 V" result [17:0] $end
$upscope $end
$upscope $end
$scope module AR_Layer_1[3] $end
$var wire 1 Y add_sub $end
$var wire 1 Z cin $end
$var wire 1 ) clock $end
$var wire 1 W" cout_lower $end
$var wire 1 X" cout_upper $end
$var wire 36 Y" dataa [35:0] $end
$var wire 36 Z" datab [35:0] $end
$var wire 18 [" result_lower [17:0] $end
$var wire 18 \" result_upper [17:0] $end
$var reg 1 ]" add_sub_upper $end
$var reg 1 ^" cout $end
$var reg 1 _" cout_lower_reg $end
$var reg 1 `" cout_upper_reg $end
$var reg 18 a" dataa_upper [17:0] $end
$var reg 18 b" datab_upper [17:0] $end
$var reg 36 c" result [35:0] $end
$var reg 18 d" result_lower_reg [17:0] $end
$var reg 18 e" result_lower_reg_1 [17:0] $end
$var reg 18 f" result_upper_reg [17:0] $end
$scope function lower_half_word $end
$var reg 18 g" lower_half_word [17:0] $end
$var reg 36 h" word [35:0] $end
$upscope $end
$scope function upper_half_word $end
$var reg 18 i" upper_half_word [17:0] $end
$var reg 36 j" word [35:0] $end
$upscope $end
$scope module alu_lower $end
$var wire 1 Y add_sub $end
$var wire 1 Z cin $end
$var wire 18 k" dataa [17:0] $end
$var wire 18 l" datab [17:0] $end
$var reg 1 m" cout $end
$var reg 18 n" result [17:0] $end
$upscope $end
$scope module addsub_upper $end
$var wire 1 o" add_sub $end
$var wire 1 p" cin $end
$var wire 18 q" dataa [17:0] $end
$var wire 18 r" datab [17:0] $end
$var reg 1 s" cout $end
$var reg 18 t" result [17:0] $end
$upscope $end
$upscope $end
$scope module AR_Layer_2[0] $end
$var wire 1 u" add_sub $end
$var wire 1 v" cin $end
$var wire 1 ) clock $end
$var wire 1 w" cout_lower $end
$var wire 1 x" cout_upper $end
$var wire 36 y" dataa [35:0] $end
$var wire 36 z" datab [35:0] $end
$var wire 18 {" result_lower [17:0] $end
$var wire 18 |" result_upper [17:0] $end
$var reg 1 }" add_sub_upper $end
$var reg 1 ~" cout $end
$var reg 1 !# cout_lower_reg $end
$var reg 1 "# cout_upper_reg $end
$var reg 18 ## dataa_upper [17:0] $end
$var reg 18 $# datab_upper [17:0] $end
$var reg 36 %# result [35:0] $end
$var reg 18 &# result_lower_reg [17:0] $end
$var reg 18 '# result_lower_reg_1 [17:0] $end
$var reg 18 (# result_upper_reg [17:0] $end
$scope function lower_half_word $end
$var reg 18 )# lower_half_word [17:0] $end
$var reg 36 *# word [35:0] $end
$upscope $end
$scope function upper_half_word $end
$var reg 18 +# upper_half_word [17:0] $end
$var reg 36 ,# word [35:0] $end
$upscope $end
$scope module alu_lower $end
$var wire 1 u" add_sub $end
$var wire 1 v" cin $end
$var wire 18 -# dataa [17:0] $end
$var wire 18 .# datab [17:0] $end
$var reg 1 /# cout $end
$var reg 18 0# result [17:0] $end
$upscope $end
$scope module addsub_upper $end
$var wire 1 1# add_sub $end
$var wire 1 2# cin $end
$var wire 18 3# dataa [17:0] $end
$var wire 18 4# datab [17:0] $end
$var reg 1 5# cout $end
$var reg 18 6# result [17:0] $end
$upscope $end
$upscope $end
$scope module AR_Layer_2[1] $end
$var wire 1 u" add_sub $end
$var wire 1 v" cin $end
$var wire 1 ) clock $end
$var wire 1 7# cout_lower $end
$var wire 1 8# cout_upper $end
$var wire 36 9# dataa [35:0] $end
$var wire 36 :# datab [35:0] $end
$var wire 18 ;# result_lower [17:0] $end
$var wire 18 <# result_upper [17:0] $end
$var reg 1 =# add_sub_upper $end
$var reg 1 ># cout $end
$var reg 1 ?# cout_lower_reg $end
$var reg 1 @# cout_upper_reg $end
$var reg 18 A# dataa_upper [17:0] $end
$var reg 18 B# datab_upper [17:0] $end
$var reg 36 C# result [35:0] $end
$var reg 18 D# result_lower_reg [17:0] $end
$var reg 18 E# result_lower_reg_1 [17:0] $end
$var reg 18 F# result_upper_reg [17:0] $end
$scope function lower_half_word $end
$var reg 18 G# lower_half_word [17:0] $end
$var reg 36 H# word [35:0] $end
$upscope $end
$scope function upper_half_word $end
$var reg 18 I# upper_half_word [17:0] $end
$var reg 36 J# word [35:0] $end
$upscope $end
$scope module alu_lower $end
$var wire 1 u" add_sub $end
$var wire 1 v" cin $end
$var wire 18 K# dataa [17:0] $end
$var wire 18 L# datab [17:0] $end
$var reg 1 M# cout $end
$var reg 18 N# result [17:0] $end
$upscope $end
$scope module addsub_upper $end
$var wire 1 O# add_sub $end
$var wire 1 P# cin $end
$var wire 18 Q# dataa [17:0] $end
$var wire 18 R# datab [17:0] $end
$var reg 1 S# cout $end
$var reg 18 T# result [17:0] $end
$upscope $end
$upscope $end
$scope module AR_Layer_3[0] $end
$var wire 1 U# add_sub $end
$var wire 1 V# cin $end
$var wire 1 ) clock $end
$var wire 1 W# cout_lower $end
$var wire 1 X# cout_upper $end
$var wire 36 Y# dataa [35:0] $end
$var wire 36 Z# datab [35:0] $end
$var wire 18 [# result_lower [17:0] $end
$var wire 18 \# result_upper [17:0] $end
$var reg 1 ]# add_sub_upper $end
$var reg 1 ^# cout $end
$var reg 1 _# cout_lower_reg $end
$var reg 1 `# cout_upper_reg $end
$var reg 18 a# dataa_upper [17:0] $end
$var reg 18 b# datab_upper [17:0] $end
$var reg 36 c# result [35:0] $end
$var reg 18 d# result_lower_reg [17:0] $end
$var reg 18 e# result_lower_reg_1 [17:0] $end
$var reg 18 f# result_upper_reg [17:0] $end
$scope function lower_half_word $end
$var reg 18 g# lower_half_word [17:0] $end
$var reg 36 h# word [35:0] $end
$upscope $end
$scope function upper_half_word $end
$var reg 18 i# upper_half_word [17:0] $end
$var reg 36 j# word [35:0] $end
$upscope $end
$scope module alu_lower $end
$var wire 1 U# add_sub $end
$var wire 1 V# cin $end
$var wire 18 k# dataa [17:0] $end
$var wire 18 l# datab [17:0] $end
$var reg 1 m# cout $end
$var reg 18 n# result [17:0] $end
$upscope $end
$scope module addsub_upper $end
$var wire 1 o# add_sub $end
$var wire 1 p# cin $end
$var wire 18 q# dataa [17:0] $end
$var wire 18 r# datab [17:0] $end
$var reg 1 s# cout $end
$var reg 18 t# result [17:0] $end
$upscope $end
$upscope $end
$upscope $end
$upscope $end
$enddefinitions $end
#0
$dumpvars
b0 t#
0s#
b0 r#
b0 q#
0p#
0o#
b0 n#
0m#
b0 l#
b0 k#
bx j#
bx i#
b0 h#
b0 g#
b0 f#
b0 e#
b0 d#
b0 c#
b0 b#
b0 a#
0`#
0_#
0^#
0]#
b0 \#
b0 [#
b0 Z#
b0 Y#
0X#
0W#
0V#
1U#
b0 T#
0S#
b0 R#
b0 Q#
0P#
0O#
b0 N#
0M#
b0 L#
b0 K#
bx J#
bx I#
b0 H#
b0 G#
b0 F#
b0 E#
b0 D#
b0 C#
b0 B#
b0 A#
0@#
0?#
0>#
0=#
b0 <#
b0 ;#
b0 :#
b0 9#
08#
07#
b0 6#
05#
b0 4#
b0 3#
02#
01#
b0 0#
0/#
b0 .#
b0 -#
bx ,#
bx +#
b0 *#
b0 )#
b0 (#
b0 '#
b0 &#
b0 %#
b0 $#
b0 ##
0"#
0!#
0~"
0}"
b0 |"
b0 {"
b0 z"
b0 y"
0x"
0w"
0v"
1u"
b0 t"
0s"
b0 r"
b0 q"
0p"
0o"
b0 n"
0m"
b0 l"
b0 k"
bx j"
bx i"
b0 h"
b0 g"
b0 f"
b0 e"
b0 d"
b0 c"
b0 b"
b0 a"
0`"
0_"
0^"
0]"
b0 \"
b0 ["
b0 Z"
b0 Y"
0X"
0W"
b0 V"
0U"
b0 T"
b0 S"
0R"
0Q"
b0 P"
0O"
b0 N"
b0 M"
bx L"
bx K"
b0 J"
b0 I"
b0 H"
b0 G"
b0 F"
b0 E"
b0 D"
b0 C"
0B"
0A"
0@"
0?"
b0 >"
b0 ="
b0 <"
b0 ;"
0:"
09"
b0 8"
07"
b0 6"
b0 5"
04"
03"
b0 2"
01"
b0 0"
b0 /"
bx ."
bx -"
b0 ,"
b0 +"
b0 *"
b0 )"
b0 ("
b0 '"
b0 &"
b0 %"
0$"
0#"
0""
0!"
b0 ~
b0 }
b0 |
b0 {
0z
0y
b0 x
0w
b0 v
b0 u
0t
0s
b0 r
0q
b0 p
b0 o
bx n
bx m
b0 l
b0 k
b0 j
b0 i
b0 h
b0 g
b0 f
b0 e
0d
0c
0b
0a
b0 `
b0 _
b0 ^
b0 ]
0\
0[
0Z
1Y
b1 X
b0 W
b0 V
b1 U
b0 T
b0 S
b1 R
b0 Q
b0 P
b1 O
b0 N
b0 M
b1 L
b0 K
b0 J
b1 I
b0 H
b0 G
b1 F
b0 E
b0 D
b1 C
b0 B
b0 A
b0 @
b0 ?
b0 >
b0 =
b0 <
b0 ;
b0 :
b0 9
b0 8
b0 7
b0 6
b0 5
b0 4
b0 3
b0 2
b0 1
b1 0
b0 /
b0 .
b0 -
b0 ,
b0 +
b0 *
0)
b0 (
b0 '
b0 &
b1000 %
b0 $
0#
b0 "
b0 !
$end
#5000
1a
1s
1!"
13"
1?"
1Q"
1]"
1o"
1}"
11#
1=#
1O#
1]#
1o#
b1 $
b0 m
b0 n
b0 -"
b0 ."
b0 K"
b0 L"
b0 i"
b0 j"
b0 +#
b0 ,#
b0 I#
b0 J#
b0 i#
b0 j#
1#
1)
#10000
0#
0)
#15000
b10 $
1#
1)
#20000
0#
0)
#25000
b11 $
1#
1)
#30000
0#
0)
#35000
b100 $
1#
1)
#40000
0#
0)
#45000
b101 $
1#
1)
#50000
0#
0)
#55000
b110 $
1#
1)
#60000
0#
0)
#65000
b111 $
1#
1)
#70000
0#
0)
#75000
b1000 $
1#
1)
#80000
0#
0)
#85000
b1001 $
1#
1)
#90000
0#
0)
#95000
b1010 $
1#
1)
#100000
0#
0)
#105000
b1011 $
1#
1)
b0 "
b1000 %
#110000
0#
0)
#115000
b1100 $
1#
1)
#120000
0#
0)
#125000
b1101 $
1#
1)
#130000
0#
0)
#135000
b1110 $
1#
1)
#140000
0#
0)
#145000
b1111 $
1#
1)
#150000
0#
0)
#155000
b10000 $
1#
1)
#160000
0#
0)
#165000
b10001 $
1#
1)
#170000
0#
0)
#175000
b10010 $
1#
1)
#180000
0#
0)
#185000
b10011 $
1#
1)
#190000
0#
0)
#195000
b10100 $
1#
1)
#200000
0#
0)
#205000
b1 V
b1 S
b1 P
b1 M
b1 J
b1 G
b1 D
b1 A
b1 @
b1 >
b1 <
b1 :
b1 8
b1 6
b1 4
b1 2
b1000000000000000000000000000000000001000000000000000000000000000000000001000000000000000000000000000000000001000000000000000000000000000000000001000000000000000000000000000000000001000000000000000000000000000000000001000000000000000000000000000000000001 '
b10101 $
b1 ?
b1 =
b1 ;
b1 9
b1 7
b1 5
b1 3
b1 1
1#
1)
b1000000000000000000000000000000000001000000000000000000000000000000000001000000000000000000000000000000000001000000000000000000000000000000000001000000000000000000000000000000000001000000000000000000000000000000000001000000000000000000000000000000000001 "
b1000000000000000000000000000000000001000000000000000000000000000000000001000000000000000000000000000000000001000000000000000000000000000000000001000000000000000000000000000000000001000000000000000000000000000000000001000000000000000000000000000000000001 &
b1000 %
#210000
0#
0)
#215000
b10 r
b10 _
b10 2"
b10 }
b10 P"
b10 ="
b10 n"
b10 ["
b1 p
b1 0"
b1 N"
b1 l"
b1 o
b1 k
b1 l
b1 /"
b1 +"
b1 ,"
b1 M"
b1 I"
b1 J"
b1 k"
b1 g"
b1 h"
b1 ^
b1 |
b1 <"
b1 Z"
b1 ]
b1 {
b1 ;"
b1 Y"
b1 W
b1 T
b1 Q
b1 N
b1 K
b1 H
b1 E
b1 B
b1000000000000000000000000000000000001000000000000000000000000000000000001000000000000000000000000000000000001000000000000000000000000000000000001000000000000000000000000000000000001000000000000000000000000000000000001000000000000000000000000000000000001 (
b10110 $
1#
1)
#220000
0#
0)
#225000
b10 h
b10 ("
b10 F"
b10 d"
b10111 $
b1 n
b1 ."
b1 L"
b1 j"
1#
1)
#230000
0#
0)
#235000
b100 0#
b100 {"
b100 N#
b100 ;#
b10 .#
b10 L#
b10 -#
b10 )#
b10 *#
b10 K#
b10 G#
b10 H#
b10 z"
b10 :#
b10 y"
b10 9#
b10 c"
b10 E"
b10 '"
b10 g
b10000000000000000000000000000000000010000000000000000000000000000000000010000000000000000000000000000000000010 *
b11000 $
b10 e"
b10 G"
b10 )"
b10 i
1#
1)
#240000
0#
0)
#245000
b100 &#
b100 D#
b11001 $
b10 ,#
b10 J#
1#
1)
#250000
0#
0)
#255000
b1000 n#
b1000 [#
b100 l#
b100 k#
b100 g#
b100 h#
b100 Z#
b100 Y#
b100 C#
b100 %#
b100000000000000000000000000000000000100 +
b11010 $
b100 E#
b100 '#
1#
1)
#260000
0#
0)
#265000
b1000 d#
b11011 $
b100 j#
1#
1)
#270000
0#
0)
#275000
b1000 c#
b1000 ,
b1000 .
b11100 $
b1000 e#
1#
1)
#280000
0#
0)
#285000
b1000 /
b1000 !
b1000 -
b11101 $
1#
1)
#290000
0#
0)
#295000
b11110 $
1#
1)
#300000
0#
0)
#305000
b111 V
b110 S
b101 P
b100 M
b11 J
b10 G
b0 A
b111 @
b110 >
b101 <
b100 :
b11 8
b10 6
b0 2
b111000000000000000000000000000000000110000000000000000000000000000000000101000000000000000000000000000000000100000000000000000000000000000000000011000000000000000000000000000000000010000000000000000000000000000000000001000000000000000000000000000000000000 '
b11111 $
b111 ?
b110 =
b101 ;
b100 9
b11 7
b10 5
b0 1
1#
1)
b111000000000000000000000000000000000110000000000000000000000000000000000101000000000000000000000000000000000100000000000000000000000000000000000011000000000000000000000000000000000010000000000000000000000000000000000001000000000000000000000000000000000000 "
b111000000000000000000000000000000000110000000000000000000000000000000000101000000000000000000000000000000000100000000000000000000000000000000000011000000000000000000000000000000000010000000000000000000000000000000000001000000000000000000000000000000000000 &
b1000 %
#310000
0#
0)
#315000
b110 2"
b110 }
b100 r
b100 _
b1000 P"
b1000 ="
b1010 n"
b1010 ["
b100 p
b101 0"
b101 +"
b101 ,"
b110 N"
b111 l"
b0 o
b100 k
b100 l
b10 M"
b110 I"
b110 J"
b11 k"
b111 g"
b111 h"
b100 ^
b101 |
b110 <"
b111 Z"
b0 ]
b10 ;"
b11 Y"
b111 W
b110 T
b101 Q
b100 N
b11 K
b10 H
b0 B
b111000000000000000000000000000000000110000000000000000000000000000000000101000000000000000000000000000000000100000000000000000000000000000000000011000000000000000000000000000000000010000000000000000000000000000000000001000000000000000000000000000000000000 (
b100000 $
1#
1)
#320000
0#
0)
#325000
b100 h
b110 ("
b1000 F"
b1010 d"
b100001 $
b100 n
b101 ."
b110 L"
b111 j"
1#
1)
#330000
0#
0)
#335000
b1100 0#
b1100 {"
b10000 N#
b10000 ;#
b1000 .#
b1010 L#
b100 -#
b1000 )#
b1000 *#
b110 K#
b1010 G#
b1010 H#
b1000 z"
b1010 :#
b100 y"
b110 9#
b1010 c"
b1000 E"
b110 '"
b100 g
b1010000000000000000000000000000000001000000000000000000000000000000000000110000000000000000000000000000000000100 *
b100010 $
b1010 e"
b1000 G"
b110 )"
b100 i
b111 j"
b110 L"
b101 ."
b100 n
1#
1)
#340000
0#
0)
#345000
b1100 &#
b10000 D#
b100011 $
b100 n
b101 ."
b110 L"
b111 j"
b1000 ,#
b1010 J#
1#
1)
#350000
0#
0)
#355000
b11100 n#
b11100 [#
b10000 l#
b1100 k#
b10000 g#
b10000 h#
b10000 Z#
b1100 Y#
b10000 C#
b1100 %#
b10000000000000000000000000000000000001100 +
b100100 $
b10000 E#
b1100 '#
b1010 J#
b1000 ,#
b111 j"
b110 L"
b101 ."
b100 n
1#
1)
#360000
0#
0)
#365000
b11100 d#
b100101 $
b100 n
b101 ."
b110 L"
b111 j"
b1000 ,#
b1010 J#
b10000 j#
1#
1)
#370000
0#
0)
#375000
b11100 c#
b11100 ,
b11100 .
b100110 $
b11100 e#
b10000 j#
b1010 J#
b1000 ,#
b111 j"
b110 L"
b101 ."
b100 n
1#
1)
#380000
0#
0)
#385000
b11100 /
b11100 !
b11100 -
b100111 $
b100 n
b101 ."
b110 L"
b111 j"
b1000 ,#
b1010 J#
b10000 j#
1#
1)
#390000
0#
0)
#395000
b101000 $
b10000 j#
b1010 J#
b1000 ,#
b111 j"
b110 L"
b101 ."
b100 n
1#
1)
#400000
0#
0)
#405000
b1000 V
b111 S
b110 P
b101 M
b100 J
b11 G
b10 D
b1 A
b1000 @
b111 >
b110 <
b101 :
b100 8
b11 6
b10 4
b1 2
b1000000000000000000000000000000000000111000000000000000000000000000000000110000000000000000000000000000000000101000000000000000000000000000000000100000000000000000000000000000000000011000000000000000000000000000000000010000000000000000000000000000000000001 '
b101001 $
b100 n
b101 ."
b110 L"
b111 j"
b1000 ,#
b1010 J#
b10000 j#
b1000 ?
b111 =
b110 ;
b101 9
b100 7
b11 5
b10 3
b1 1
1#
1)
b1000000000000000000000000000000000000111000000000000000000000000000000000110000000000000000000000000000000000101000000000000000000000000000000000100000000000000000000000000000000000011000000000000000000000000000000000010000000000000000000000000000000000001 "
b1000000000000000000000000000000000000111000000000000000000000000000000000110000000000000000000000000000000000101000000000000000000000000000000000100000000000000000000000000000000000011000000000000000000000000000000000010000000000000000000000000000000000001 &
b1000 %
#410000
0#
0)
#415000
b110 r
b110 _
b1000 2"
b1000 }
b1010 P"
b1010 ="
b1100 n"
b1100 ["
b101 p
b110 0"
b111 N"
b1000 l"
b1 o
b101 k
b101 l
b10 /"
b110 +"
b110 ,"
b11 M"
b111 I"
b111 J"
b100 k"
b1000 g"
b1000 h"
b101 ^
b110 |
b111 <"
b1000 Z"
b1 ]
b10 {
b11 ;"
b100 Y"
b1000 W
b111 T
b110 Q
b101 N
b100 K
b11 H
b10 E
b1 B
b1000000000000000000000000000000000000111000000000000000000000000000000000110000000000000000000000000000000000101000000000000000000000000000000000100000000000000000000000000000000000011000000000000000000000000000000000010000000000000000000000000000000000001 (
b101010 $
b10000 j#
b1010 J#
b1000 ,#
b111 j"
b110 L"
b101 ."
b100 n
1#
1)
#420000
0#
0)
#425000
b110 h
b1000 ("
b1010 F"
b1100 d"
b101011 $
b101 n
b110 ."
b111 L"
b1000 j"
b1000 ,#
b1010 J#
b10000 j#
1#
1)
#430000
0#
0)
#435000
b10000 0#
b10000 {"
b10100 N#
b10100 ;#
b1010 .#
b1100 L#
b110 -#
b1010 )#
b1010 *#
b1000 K#
b1100 G#
b1100 H#
b1010 z"
b1100 :#
b110 y"
b1000 9#
b1100 c"
b1010 E"
b1000 '"
b110 g
b1100000000000000000000000000000000001010000000000000000000000000000000001000000000000000000000000000000000000110 *
b101100 $
b1100 e"
b1010 G"
b1000 )"
b110 i
b10000 j#
b1010 J#
b1000 ,#
b1000 j"
b111 L"
b110 ."
b101 n
1#
1)
#440000
0#
0)
#445000
b10000 &#
b10100 D#
b101101 $
b101 n
b110 ."
b111 L"
b1000 j"
b1010 ,#
b1100 J#
b10000 j#
1#
1)
#450000
0#
0)
#455000
b100100 n#
b100100 [#
b10100 l#
b10100 g#
b10100 h#
b10000 k#
b10100 Z#
b10000 Y#
b10100 C#
b10000 %#
b10100000000000000000000000000000000010000 +
b101110 $
b10100 E#
b10000 '#
b10000 j#
b1100 J#
b1010 ,#
b1000 j"
b111 L"
b110 ."
b101 n
1#
1)
#460000
0#
0)
#465000
b100100 d#
b101111 $
b101 n
b110 ."
b111 L"
b1000 j"
b1010 ,#
b1100 J#
b10100 j#
1#
1)
#470000
0#
0)
#475000
b100100 c#
b100100 ,
b100100 .
b110000 $
b100100 e#
b10100 j#
b1100 J#
b1010 ,#
b1000 j"
b111 L"
b110 ."
b101 n
1#
1)
#480000
0#
0)
#485000
b100100 /
b100100 !
b100100 -
b110001 $
b101 n
b110 ."
b111 L"
b1000 j"
b1010 ,#
b1100 J#
b10100 j#
1#
1)
#490000
0#
0)
#495000
b110010 $
b10100 j#
b1100 J#
b1010 ,#
b1000 j"
b111 L"
b110 ."
b101 n
1#
1)
#500000
0#
0)
#505000
b0 V
b0 S
b0 P
b0 M
b0 J
b0 G
b0 D
b0 A
b0 @
b0 >
b0 <
b0 :
b0 8
b0 6
b0 4
b0 2
b0 '
b110011 $
b101 n
b110 ."
b111 L"
b1000 j"
b1010 ,#
b1100 J#
b10100 j#
b0 ?
b0 =
b0 ;
b0 9
b0 7
b0 5
b0 3
b0 1
1#
1)
b0 "
b0 &
b1000 %
#510000
0#
0)
#515000
b0 r
b0 _
b0 2"
b0 }
b0 P"
b0 ="
b0 n"
b0 ["
b0 p
b0 0"
b0 N"
b0 l"
b0 o
b0 k
b0 l
b0 /"
b0 +"
b0 ,"
b0 M"
b0 I"
b0 J"
b0 k"
b0 g"
b0 h"
b0 ^
b0 |
b0 <"
b0 Z"
b0 ]
b0 {
b0 ;"
b0 Y"
b0 W
b0 T
b0 Q
b0 N
b0 K
b0 H
b0 E
b0 B
b0 (
b110100 $
b10100 j#
b1100 J#
b1010 ,#
b1000 j"
b111 L"
b110 ."
b101 n
1#
1)
#520000
0#
0)
#525000
b0 h
b0 ("
b0 F"
b0 d"
b110101 $
b0 n
b0 ."
b0 L"
b0 j"
b1010 ,#
b1100 J#
b10100 j#
1#
1)
#530000
0#
0)
